build/church_change_sto_test.vcd
$comment Generated by Amaranth $end
$date 2026-04-23 21:28:20.349780 $end
$timescale 1 fs $end
$scope module bench $end
$scope module top $end
$var wire 1 ! clk $end
$var wire 1 " rst $end
$var string 1 # fsm_state $end
$var wire 1 $ start $end
$var wire 5 % save_index $end
$var wire 1 & phase_pc $end
$var wire 1 ' mem_wr_en $end
$var wire 32 ( mem_wr_addr $end
$var wire 1 ) done $end
$upscope $end
$upscope $end
$enddefinitions $end
#0
$dumpvars
0!
0"
sIDLE/0 #
0$
b0 %
0&
0'
b0 (
0)
$end
#5000000
1!
1$
#10000000
0!
#15000000
1!
sSAVE_DR/1 #
b1000000000000 (
1'
0$
#20000000
0!
#25000000
1!
b1 %
b1000000000100 (
#30000000
0!
#35000000
1!
b10 %
b1000000001000 (
#40000000
0!
#45000000
1!
b11 %
b1000000001100 (
#50000000
0!
#55000000
1!
b100 %
b1000000010000 (
#60000000
0!
#65000000
1!
b101 %
b1000000010100 (
#70000000
0!
#75000000
1!
b110 %
b1000000011000 (
#80000000
0!
#85000000
1!
b111 %
b1000000011100 (
#90000000
0!
#95000000
1!
b1000 %
b1000000100000 (
#100000000
0!
#105000000
1!
b1001 %
b1000000100100 (
#110000000
0!
#115000000
1!
b1010 %
b1000000101000 (
#120000000
0!
#125000000
1!
b1011 %
b1000000101100 (
#130000000
0!
#135000000
1!
b1100 %
b1000000110000 (
#140000000
0!
#145000000
1!
b1101 %
b1000000110100 (
#150000000
0!
#155000000
1!
b1110 %
b1000000111000 (
#160000000
0!
#165000000
1!
b1111 %
b1000000111100 (
#170000000
0!
#175000000
1!
b10000 %
sSAVE_PACKED_PC/2 #
b1000001000000 (
#180000000
0!
#185000000
1!
sDONE/3 #
0'
b0 (
1)
