build/test_loader.vcd
$comment Generated by Amaranth $end
$date 2026-03-02 11:11:40.645897 $end
$timescale 1 fs $end
$scope module bench $end
$scope module top $end
$var wire 1 ! clk $end
$var wire 1 " rst $end
$var wire 1 # rx $end
$var wire 1 $ uart_rx_pin $end
$var wire 2 % imem_r_addr $end
$var wire 9 & imem_probe_addr $end
$var wire 32 ' imem_probe_data $end
$var wire 32 ( imem_r_data $end
$var wire 8 ) dmem_r_addr $end
$var wire 9 * dmem_probe_addr $end
$var wire 32 + dmem_probe_data $end
$var wire 32 , dmem_r_data $end
$var wire 1 - load_done $end
$var wire 1 . load_done$13 $end
$var wire 16 / words_received $end
$var wire 9 0 load_words_received $end
$var wire 1 1 is_imem_word $end
$var wire 8 2 dmem_offset $end
$var string 1 3 loader_fsm_state $end
$var wire 2 4 imem_w_addr $end
$var wire 32 5 imem_w_data $end
$var wire 32 6 load_word $end
$var wire 1 7 imem_w_en $end
$var wire 8 8 dmem_w_addr $end
$var wire 32 9 dmem_w_data $end
$var wire 1 : dmem_w_en $end
$var wire 1 ; valid $end
$var wire 2 < load_byte_idx $end
$var wire 8 = data $end
$var wire 9 > load_word_count $end
$var wire 32 G \imem[0] $end
$var wire 32 H \imem[1] $end
$var wire 32 I \imem[2] $end
$var wire 32 J \imem[3] $end
$var wire 32 K \dmem[0] $end
$var wire 32 L \dmem[1] $end
$var wire 32 M \dmem[2] $end
$var wire 32 N \dmem[3] $end
$var wire 32 O \dmem[4] $end
$var wire 32 P \dmem[5] $end
$var wire 32 Q \dmem[6] $end
$var wire 32 R \dmem[7] $end
$var wire 32 S \dmem[8] $end
$var wire 32 T \dmem[9] $end
$var wire 32 U \dmem[10] $end
$var wire 32 V \dmem[11] $end
$var wire 32 W \dmem[12] $end
$var wire 32 X \dmem[13] $end
$var wire 32 Y \dmem[14] $end
$var wire 32 Z \dmem[15] $end
$var wire 32 [ \dmem[16] $end
$var wire 32 \ \dmem[17] $end
$var wire 32 ] \dmem[18] $end
$var wire 32 ^ \dmem[19] $end
$var wire 32 _ \dmem[20] $end
$var wire 32 ` \dmem[21] $end
$var wire 32 a \dmem[22] $end
$var wire 32 b \dmem[23] $end
$var wire 32 c \dmem[24] $end
$var wire 32 d \dmem[25] $end
$var wire 32 e \dmem[26] $end
$var wire 32 f \dmem[27] $end
$var wire 32 g \dmem[28] $end
$var wire 32 h \dmem[29] $end
$var wire 32 i \dmem[30] $end
$var wire 32 j \dmem[31] $end
$var wire 32 k \dmem[32] $end
$var wire 32 l \dmem[33] $end
$var wire 32 m \dmem[34] $end
$var wire 32 n \dmem[35] $end
$var wire 32 o \dmem[36] $end
$var wire 32 p \dmem[37] $end
$var wire 32 q \dmem[38] $end
$var wire 32 r \dmem[39] $end
$var wire 32 s \dmem[40] $end
$var wire 32 t \dmem[41] $end
$var wire 32 u \dmem[42] $end
$var wire 32 v \dmem[43] $end
$var wire 32 w \dmem[44] $end
$var wire 32 x \dmem[45] $end
$var wire 32 y \dmem[46] $end
$var wire 32 z \dmem[47] $end
$var wire 32 { \dmem[48] $end
$var wire 32 | \dmem[49] $end
$var wire 32 } \dmem[50] $end
$var wire 32 ~ \dmem[51] $end
$var wire 32 !! \dmem[52] $end
$var wire 32 "! \dmem[53] $end
$var wire 32 #! \dmem[54] $end
$var wire 32 $! \dmem[55] $end
$var wire 32 %! \dmem[56] $end
$var wire 32 &! \dmem[57] $end
$var wire 32 '! \dmem[58] $end
$var wire 32 (! \dmem[59] $end
$var wire 32 )! \dmem[60] $end
$var wire 32 *! \dmem[61] $end
$var wire 32 +! \dmem[62] $end
$var wire 32 ,! \dmem[63] $end
$var wire 32 -! \dmem[64] $end
$var wire 32 .! \dmem[65] $end
$var wire 32 /! \dmem[66] $end
$var wire 32 0! \dmem[67] $end
$var wire 32 1! \dmem[68] $end
$var wire 32 2! \dmem[69] $end
$var wire 32 3! \dmem[70] $end
$var wire 32 4! \dmem[71] $end
$var wire 32 5! \dmem[72] $end
$var wire 32 6! \dmem[73] $end
$var wire 32 7! \dmem[74] $end
$var wire 32 8! \dmem[75] $end
$var wire 32 9! \dmem[76] $end
$var wire 32 :! \dmem[77] $end
$var wire 32 ;! \dmem[78] $end
$var wire 32 <! \dmem[79] $end
$var wire 32 =! \dmem[80] $end
$var wire 32 >! \dmem[81] $end
$var wire 32 ?! \dmem[82] $end
$var wire 32 @! \dmem[83] $end
$var wire 32 A! \dmem[84] $end
$var wire 32 B! \dmem[85] $end
$var wire 32 C! \dmem[86] $end
$var wire 32 D! \dmem[87] $end
$var wire 32 E! \dmem[88] $end
$var wire 32 F! \dmem[89] $end
$var wire 32 G! \dmem[90] $end
$var wire 32 H! \dmem[91] $end
$var wire 32 I! \dmem[92] $end
$var wire 32 J! \dmem[93] $end
$var wire 32 K! \dmem[94] $end
$var wire 32 L! \dmem[95] $end
$var wire 32 M! \dmem[96] $end
$var wire 32 N! \dmem[97] $end
$var wire 32 O! \dmem[98] $end
$var wire 32 P! \dmem[99] $end
$var wire 32 Q! \dmem[100] $end
$var wire 32 R! \dmem[101] $end
$var wire 32 S! \dmem[102] $end
$var wire 32 T! \dmem[103] $end
$var wire 32 U! \dmem[104] $end
$var wire 32 V! \dmem[105] $end
$var wire 32 W! \dmem[106] $end
$var wire 32 X! \dmem[107] $end
$var wire 32 Y! \dmem[108] $end
$var wire 32 Z! \dmem[109] $end
$var wire 32 [! \dmem[110] $end
$var wire 32 \! \dmem[111] $end
$var wire 32 ]! \dmem[112] $end
$var wire 32 ^! \dmem[113] $end
$var wire 32 _! \dmem[114] $end
$var wire 32 `! \dmem[115] $end
$var wire 32 a! \dmem[116] $end
$var wire 32 b! \dmem[117] $end
$var wire 32 c! \dmem[118] $end
$var wire 32 d! \dmem[119] $end
$var wire 32 e! \dmem[120] $end
$var wire 32 f! \dmem[121] $end
$var wire 32 g! \dmem[122] $end
$var wire 32 h! \dmem[123] $end
$var wire 32 i! \dmem[124] $end
$var wire 32 j! \dmem[125] $end
$var wire 32 k! \dmem[126] $end
$var wire 32 l! \dmem[127] $end
$var wire 32 m! \dmem[128] $end
$var wire 32 n! \dmem[129] $end
$var wire 32 o! \dmem[130] $end
$var wire 32 p! \dmem[131] $end
$var wire 32 q! \dmem[132] $end
$var wire 32 r! \dmem[133] $end
$var wire 32 s! \dmem[134] $end
$var wire 32 t! \dmem[135] $end
$var wire 32 u! \dmem[136] $end
$var wire 32 v! \dmem[137] $end
$var wire 32 w! \dmem[138] $end
$var wire 32 x! \dmem[139] $end
$var wire 32 y! \dmem[140] $end
$var wire 32 z! \dmem[141] $end
$var wire 32 {! \dmem[142] $end
$var wire 32 |! \dmem[143] $end
$var wire 32 }! \dmem[144] $end
$var wire 32 ~! \dmem[145] $end
$var wire 32 !" \dmem[146] $end
$var wire 32 "" \dmem[147] $end
$var wire 32 #" \dmem[148] $end
$var wire 32 $" \dmem[149] $end
$var wire 32 %" \dmem[150] $end
$var wire 32 &" \dmem[151] $end
$var wire 32 '" \dmem[152] $end
$var wire 32 (" \dmem[153] $end
$var wire 32 )" \dmem[154] $end
$var wire 32 *" \dmem[155] $end
$var wire 32 +" \dmem[156] $end
$var wire 32 ," \dmem[157] $end
$var wire 32 -" \dmem[158] $end
$var wire 32 ." \dmem[159] $end
$var wire 32 /" \dmem[160] $end
$var wire 32 0" \dmem[161] $end
$var wire 32 1" \dmem[162] $end
$var wire 32 2" \dmem[163] $end
$var wire 32 3" \dmem[164] $end
$var wire 32 4" \dmem[165] $end
$var wire 32 5" \dmem[166] $end
$var wire 32 6" \dmem[167] $end
$var wire 32 7" \dmem[168] $end
$var wire 32 8" \dmem[169] $end
$var wire 32 9" \dmem[170] $end
$var wire 32 :" \dmem[171] $end
$var wire 32 ;" \dmem[172] $end
$var wire 32 <" \dmem[173] $end
$var wire 32 =" \dmem[174] $end
$var wire 32 >" \dmem[175] $end
$var wire 32 ?" \dmem[176] $end
$var wire 32 @" \dmem[177] $end
$var wire 32 A" \dmem[178] $end
$var wire 32 B" \dmem[179] $end
$var wire 32 C" \dmem[180] $end
$var wire 32 D" \dmem[181] $end
$var wire 32 E" \dmem[182] $end
$var wire 32 F" \dmem[183] $end
$var wire 32 G" \dmem[184] $end
$var wire 32 H" \dmem[185] $end
$var wire 32 I" \dmem[186] $end
$var wire 32 J" \dmem[187] $end
$var wire 32 K" \dmem[188] $end
$var wire 32 L" \dmem[189] $end
$var wire 32 M" \dmem[190] $end
$var wire 32 N" \dmem[191] $end
$var wire 32 O" \dmem[192] $end
$var wire 32 P" \dmem[193] $end
$var wire 32 Q" \dmem[194] $end
$var wire 32 R" \dmem[195] $end
$var wire 32 S" \dmem[196] $end
$var wire 32 T" \dmem[197] $end
$var wire 32 U" \dmem[198] $end
$var wire 32 V" \dmem[199] $end
$var wire 32 W" \dmem[200] $end
$var wire 32 X" \dmem[201] $end
$var wire 32 Y" \dmem[202] $end
$var wire 32 Z" \dmem[203] $end
$var wire 32 [" \dmem[204] $end
$var wire 32 \" \dmem[205] $end
$var wire 32 ]" \dmem[206] $end
$var wire 32 ^" \dmem[207] $end
$var wire 32 _" \dmem[208] $end
$var wire 32 `" \dmem[209] $end
$var wire 32 a" \dmem[210] $end
$var wire 32 b" \dmem[211] $end
$var wire 32 c" \dmem[212] $end
$var wire 32 d" \dmem[213] $end
$var wire 32 e" \dmem[214] $end
$var wire 32 f" \dmem[215] $end
$var wire 32 g" \dmem[216] $end
$var wire 32 h" \dmem[217] $end
$var wire 32 i" \dmem[218] $end
$var wire 32 j" \dmem[219] $end
$var wire 32 k" \dmem[220] $end
$var wire 32 l" \dmem[221] $end
$var wire 32 m" \dmem[222] $end
$var wire 32 n" \dmem[223] $end
$var wire 32 o" \dmem[224] $end
$var wire 32 p" \dmem[225] $end
$var wire 32 q" \dmem[226] $end
$var wire 32 r" \dmem[227] $end
$var wire 32 s" \dmem[228] $end
$var wire 32 t" \dmem[229] $end
$var wire 32 u" \dmem[230] $end
$var wire 32 v" \dmem[231] $end
$var wire 32 w" \dmem[232] $end
$var wire 32 x" \dmem[233] $end
$var wire 32 y" \dmem[234] $end
$var wire 32 z" \dmem[235] $end
$var wire 32 {" \dmem[236] $end
$var wire 32 |" \dmem[237] $end
$var wire 32 }" \dmem[238] $end
$var wire 32 ~" \dmem[239] $end
$var wire 32 !# \dmem[240] $end
$var wire 32 "# \dmem[241] $end
$var wire 32 ## \dmem[242] $end
$var wire 32 $# \dmem[243] $end
$var wire 32 %# \dmem[244] $end
$var wire 32 &# \dmem[245] $end
$var wire 32 '# \dmem[246] $end
$var wire 32 (# \dmem[247] $end
$var wire 32 )# \dmem[248] $end
$var wire 32 *# \dmem[249] $end
$var wire 32 +# \dmem[250] $end
$var wire 32 ,# \dmem[251] $end
$var wire 32 -# \dmem[252] $end
$var wire 32 .# \dmem[253] $end
$var wire 32 /# \dmem[254] $end
$var wire 32 0# \dmem[255] $end
$scope module dmem $end
$var wire 1 ! clk $end
$var wire 1 " rst $end
$var wire 8 ) dmem_r_addr $end
$var wire 32 , dmem_r_data $end
$var wire 8 8 dmem_w_addr $end
$var wire 32 9 dmem_w_data $end
$var wire 1 : dmem_w_en $end
$var wire 1 F dmem_r_en $end
$upscope $end
$scope module imem $end
$var wire 1 ! clk $end
$var wire 1 " rst $end
$var wire 2 % imem_r_addr $end
$var wire 32 ( imem_r_data $end
$var wire 2 4 imem_w_addr $end
$var wire 32 5 imem_w_data $end
$var wire 1 7 imem_w_en $end
$var wire 1 E imem_r_en $end
$upscope $end
$scope module uart_rx $end
$var wire 1 ! clk $end
$var wire 1 " rst $end
$var wire 1 # rx $end
$var wire 1 ; valid $end
$var wire 8 = data $end
$var wire 2 ? rx_sync $end
$var string 1 @ uart_rx_state $end
$var wire 7 A counter $end
$var wire 4 B bit_pos $end
$var wire 8 C shift_reg $end
$var wire 1 D error $end
$upscope $end
$upscope $end
$upscope $end
$enddefinitions $end
#0
$dumpvars
0!
0"
0#
0$
b0 %
b0 &
b0 '
b0 (
b0 )
b0 *
b0 +
b0 ,
0-
0.
b0 /
b0 0
11
b11111100 2
sRECV_HEADER/0 3
b0 4
b0 5
b0 6
07
b0 8
b0 9
0:
0;
b0 <
b0 =
b0 >
b11 ?
sIDLE/0 @
b0 A
b0 B
b0 C
0D
1E
1F
b0 G
b0 H
b0 I
b0 J
b0 K
b0 L
b0 M
b0 N
b0 O
b0 P
b0 Q
b0 R
b0 S
b0 T
b0 U
b0 V
b0 W
b0 X
b0 Y
b0 Z
b0 [
b0 \
b0 ]
b0 ^
b0 _
b0 `
b0 a
b0 b
b0 c
b0 d
b0 e
b0 f
b0 g
b0 h
b0 i
b0 j
b0 k
b0 l
b0 m
b0 n
b0 o
b0 p
b0 q
b0 r
b0 s
b0 t
b0 u
b0 v
b0 w
b0 x
b0 y
b0 z
b0 {
b0 |
b0 }
b0 ~
b0 !!
b0 "!
b0 #!
b0 $!
b0 %!
b0 &!
b0 '!
b0 (!
b0 )!
b0 *!
b0 +!
b0 ,!
b0 -!
b0 .!
b0 /!
b0 0!
b0 1!
b0 2!
b0 3!
b0 4!
b0 5!
b0 6!
b0 7!
b0 8!
b0 9!
b0 :!
b0 ;!
b0 <!
b0 =!
b0 >!
b0 ?!
b0 @!
b0 A!
b0 B!
b0 C!
b0 D!
b0 E!
b0 F!
b0 G!
b0 H!
b0 I!
b0 J!
b0 K!
b0 L!
b0 M!
b0 N!
b0 O!
b0 P!
b0 Q!
b0 R!
b0 S!
b0 T!
b0 U!
b0 V!
b0 W!
b0 X!
b0 Y!
b0 Z!
b0 [!
b0 \!
b0 ]!
b0 ^!
b0 _!
b0 `!
b0 a!
b0 b!
b0 c!
b0 d!
b0 e!
b0 f!
b0 g!
b0 h!
b0 i!
b0 j!
b0 k!
b0 l!
b0 m!
b0 n!
b0 o!
b0 p!
b0 q!
b0 r!
b0 s!
b0 t!
b0 u!
b0 v!
b0 w!
b0 x!
b0 y!
b0 z!
b0 {!
b0 |!
b0 }!
b0 ~!
b0 !"
b0 ""
b0 #"
b0 $"
b0 %"
b0 &"
b0 '"
b0 ("
b0 )"
b0 *"
b0 +"
b0 ,"
b0 -"
b0 ."
b0 /"
b0 0"
b0 1"
b0 2"
b0 3"
b0 4"
b0 5"
b0 6"
b0 7"
b0 8"
b0 9"
b0 :"
b0 ;"
b0 <"
b0 ="
b0 >"
b0 ?"
b0 @"
b0 A"
b0 B"
b0 C"
b0 D"
b0 E"
b0 F"
b0 G"
b0 H"
b0 I"
b0 J"
b0 K"
b0 L"
b0 M"
b0 N"
b0 O"
b0 P"
b0 Q"
b0 R"
b0 S"
b0 T"
b0 U"
b0 V"
b0 W"
b0 X"
b0 Y"
b0 Z"
b0 ["
b0 \"
b0 ]"
b0 ^"
b0 _"
b0 `"
b0 a"
b0 b"
b0 c"
b0 d"
b0 e"
b0 f"
b0 g"
b0 h"
b0 i"
b0 j"
b0 k"
b0 l"
b0 m"
b0 n"
b0 o"
b0 p"
b0 q"
b0 r"
b0 s"
b0 t"
b0 u"
b0 v"
b0 w"
b0 x"
b0 y"
b0 z"
b0 {"
b0 |"
b0 }"
b0 ~"
b0 !#
b0 "#
b0 ##
b0 $#
b0 %#
b0 &#
b0 '#
b0 (#
b0 )#
b0 *#
b0 +#
b0 ,#
b0 -#
b0 .#
b0 /#
b0 0#
$end
#41666666
1!
b10 ?
#83333332
0!
#124999998
1!
b0 ?
#166666664
0!
#208333330
1!
sSTART/1 @
#249999996
0!
#291666662
1!
b1 A
#333333328
0!
#374999994
1!
b10 A
#416666660
0!
#458333326
1!
b11 A
#499999992
0!
#541666658
1!
b100 A
#583333324
0!
#624999990
1!
b101 A
#666666656
0!
#708333322
1!
b110 A
#749999988
0!
#791666654
1!
b111 A
#833333320
0!
#874999986
1!
b1000 A
#916666652
0!
#958333318
1!
b1001 A
#999999984
0!
#1041666650
1!
b1010 A
#1083333316
0!
#1124999982
1!
b1011 A
#1166666648
0!
#1208333314
1!
b1100 A
#1249999980
0!
#1291666646
1!
b1101 A
#1333333312
0!
#1374999978
1!
b1110 A
#1416666644
0!
#1458333310
1!
b1111 A
#1499999976
0!
#1541666642
1!
b10000 A
#1583333308
0!
#1624999974
1!
b10001 A
#1666666640
0!
#1708333306
1!
b10010 A
#1749999972
0!
#1791666638
1!
b10011 A
#1833333304
0!
#1874999970
1!
b10100 A
#1916666636
0!
#1958333302
1!
b10101 A
#1999999968
0!
#2041666634
1!
b10110 A
#2083333300
0!
#2124999966
1!
b10111 A
#2166666632
0!
#2208333298
1!
b11000 A
#2249999964
0!
#2291666630
1!
b11001 A
#2333333296
0!
#2374999962
1!
b11010 A
#2416666628
0!
#2458333294
1!
b11011 A
#2499999960
0!
#2541666626
1!
b11100 A
#2583333292
0!
#2624999958
1!
b11101 A
#2666666624
0!
#2708333290
1!
b11110 A
#2749999956
0!
#2791666622
1!
b11111 A
#2833333288
0!
#2874999954
1!
b100000 A
#2916666620
0!
#2958333286
1!
b100001 A
#2999999952
0!
#3041666618
1!
b100010 A
#3083333284
0!
#3124999950
1!
b100011 A
#3166666616
0!
#3208333282
1!
b100100 A
#3249999948
0!
#3291666614
1!
b100101 A
#3333333280
0!
#3374999946
1!
b100110 A
#3416666612
0!
#3458333278
1!
b100111 A
#3499999944
0!
#3541666610
1!
b101000 A
#3583333276
0!
#3624999942
1!
b101001 A
#3666666608
0!
#3708333274
1!
b101010 A
#3749999940
0!
#3791666606
1!
b101011 A
#3833333272
0!
#3874999938
1!
b101100 A
#3916666604
0!
#3958333270
1!
b101101 A
#3999999936
0!
#4041666602
1!
b101110 A
#4083333268
0!
#4124999934
1!
b101111 A
#4166666600
0!
#4208333266
1!
b110000 A
#4249999932
0!
#4291666598
1!
b110001 A
#4333333264
0!
#4374999930
1!
b110010 A
#4416666596
0!
#4458333262
1!
b110011 A
#4499999928
0!
#4541666594
1!
sDATA/2 @
b0 A
#4583333260
0!
#4624999926
1!
b1 A
#4666666592
0!
#4708333258
1!
b10 A
#4749999924
0!
#4791666590
1!
b11 A
#4833333256
0!
#4874999922
1!
b100 A
#4916666588
0!
#4958333254
1!
b101 A
#4999999920
0!
#5041666586
1!
b110 A
#5083333252
0!
#5124999918
1!
b111 A
#5166666584
0!
#5208333250
1!
b1000 A
#5249999916
0!
#5291666582
1!
b1001 A
#5333333248
0!
#5374999914
1!
b1010 A
#5416666580
0!
#5458333246
1!
b1011 A
#5499999912
0!
#5541666578
1!
b1100 A
#5583333244
0!
#5624999910
1!
b1101 A
#5666666576
0!
#5708333242
1!
b1110 A
#5749999908
0!
#5791666574
1!
b1111 A
#5833333240
0!
#5874999906
1!
b10000 A
#5916666572
0!
#5958333238
1!
b10001 A
#5999999904
0!
#6041666570
1!
b10010 A
#6083333236
0!
#6124999902
1!
b10011 A
#6166666568
0!
#6208333234
1!
b10100 A
#6249999900
0!
#6291666566
1!
b10101 A
#6333333232
0!
#6374999898
1!
b10110 A
#6416666564
0!
#6458333230
1!
b10111 A
#6499999896
0!
#6541666562
1!
b11000 A
#6583333228
0!
#6624999894
1!
b11001 A
#6666666560
0!
#6708333226
1!
b11010 A
#6749999892
0!
#6791666558
1!
b11011 A
#6833333224
0!
#6874999890
1!
b11100 A
#6916666556
0!
#6958333222
1!
b11101 A
#6999999888
0!
#7041666554
1!
b11110 A
#7083333220
0!
#7124999886
1!
b11111 A
#7166666552
0!
#7208333218
1!
b100000 A
#7249999884
0!
#7291666550
1!
b100001 A
#7333333216
0!
#7374999882
1!
b100010 A
#7416666548
0!
#7458333214
1!
b100011 A
#7499999880
0!
#7541666546
1!
b100100 A
#7583333212
0!
#7624999878
1!
b100101 A
#7666666544
0!
#7708333210
1!
b100110 A
#7749999876
0!
#7791666542
1!
b100111 A
#7833333208
0!
#7874999874
1!
b101000 A
#7916666540
0!
#7958333206
1!
b101001 A
#7999999872
0!
#8041666538
1!
b101010 A
#8083333204
0!
#8124999870
1!
b101011 A
#8166666536
0!
#8208333202
1!
b101100 A
#8249999868
0!
#8291666534
1!
b101101 A
#8333333200
0!
#8374999866
1!
b101110 A
#8416666532
0!
#8458333198
1!
b101111 A
#8499999864
0!
#8541666530
1!
b110000 A
#8583333196
0!
#8624999862
1!
b110001 A
#8666666528
0!
#8708333194
1!
b110010 A
#8749999860
0!
#8791666526
1!
b110011 A
#8833333192
0!
#8874999858
1!
b110100 A
#8916666524
0!
#8958333190
1!
b110101 A
#8999999856
0!
#9041666522
1!
b110110 A
#9083333188
0!
#9124999854
1!
b110111 A
#9166666520
0!
#9208333186
1!
b111000 A
#9249999852
0!
#9291666518
1!
b111001 A
#9333333184
0!
#9374999850
1!
b111010 A
#9416666516
0!
#9458333182
1!
b111011 A
#9499999848
0!
#9541666514
1!
b111100 A
#9583333180
0!
#9624999846
1!
b111101 A
#9666666512
0!
#9708333178
1!
b111110 A
#9749999844
0!
#9791666510
1!
b111111 A
#9833333176
0!
#9874999842
1!
b1000000 A
#9916666508
0!
#9958333174
1!
b1000001 A
#9999999840
0!
#10041666506
1!
b1000010 A
#10083333172
0!
#10124999838
1!
b1000011 A
#10166666504
0!
#10208333170
1!
b1000100 A
#10249999836
0!
#10291666502
1!
b1000101 A
#10333333168
0!
#10374999834
1!
b1000110 A
#10416666500
0!
#10458333166
1!
b1000111 A
#10499999832
0!
#10541666498
1!
b1001000 A
#10583333164
0!
#10624999830
1!
b1001001 A
#10666666496
0!
#10708333162
1!
b1001010 A
#10749999828
0!
#10791666494
1!
b1001011 A
#10833333160
0!
#10874999826
1!
b1001100 A
#10916666492
0!
#10958333158
1!
b1001101 A
#10999999824
0!
#11041666490
1!
b1001110 A
#11083333156
0!
#11124999822
1!
b1001111 A
#11166666488
0!
#11208333154
1!
b1010000 A
#11249999820
0!
#11291666486
1!
b1010001 A
#11333333152
0!
#11374999818
1!
b1010010 A
#11416666484
0!
#11458333150
1!
b1010011 A
#11499999816
0!
#11541666482
1!
b1010100 A
#11583333148
0!
#11624999814
1!
b1010101 A
#11666666480
0!
#11708333146
1!
b1010110 A
#11749999812
0!
#11791666478
1!
b1010111 A
#11833333144
0!
#11874999810
1!
b1011000 A
#11916666476
0!
#11958333142
1!
b1011001 A
#11999999808
0!
#12041666474
1!
b1011010 A
#12083333140
0!
#12124999806
1!
b1011011 A
#12166666472
0!
#12208333138
1!
b1011100 A
#12249999804
0!
#12291666470
1!
b1011101 A
#12333333136
0!
#12374999802
1!
b1011110 A
#12416666468
0!
#12458333134
1!
b1011111 A
#12499999800
0!
#12541666466
1!
b1100000 A
#12583333132
0!
#12624999798
1!
b1100001 A
#12666666464
0!
#12708333130
1!
b1100010 A
#12749999796
0!
#12791666462
1!
b1100011 A
#12833333128
0!
#12874999794
1!
b1100100 A
#12916666460
0!
#12958333126
1!
b1100101 A
#12999999792
0!
#13041666458
1!
b1100110 A
#13083333124
0!
#13124999790
1!
b1100111 A
#13166666456
0!
#13208333122
1!
b0 A
b1 B
#13249999788
0!
#13291666454
1!
b1 A
#13333333120
0!
#13374999786
1!
b10 A
#13416666452
0!
#13458333118
1!
b11 A
#13499999784
0!
#13541666450
1!
b100 A
#13583333116
0!
#13624999782
1!
b101 A
#13666666448
0!
#13708333114
1!
b110 A
#13749999780
0!
#13791666446
1!
b111 A
#13833333112
0!
#13874999778
1!
b1000 A
#13916666444
0!
#13958333110
1!
b1001 A
#13999999776
0!
#14041666442
1!
b1010 A
#14083333108
0!
#14124999774
1!
b1011 A
#14166666440
0!
#14208333106
1!
b1100 A
#14249999772
0!
#14291666438
1!
b1101 A
#14333333104
0!
#14374999770
1!
b1110 A
#14416666436
0!
#14458333102
1!
b1111 A
#14499999768
0!
#14541666434
1!
b10000 A
#14583333100
0!
#14624999766
1!
b10001 A
#14666666432
0!
#14708333098
1!
b10010 A
#14749999764
0!
#14791666430
1!
b10011 A
#14833333096
0!
#14874999762
1!
b10100 A
#14916666428
0!
#14958333094
1!
b10101 A
#14999999760
0!
#15041666426
1!
b10110 A
#15083333092
0!
#15124999758
1!
b10111 A
#15166666424
0!
#15208333090
1!
b11000 A
#15249999756
0!
#15291666422
1!
b11001 A
#15333333088
0!
#15374999754
1!
b11010 A
#15416666420
0!
#15458333086
1!
b11011 A
#15499999752
0!
#15541666418
1!
b11100 A
#15583333084
0!
#15624999750
1!
b11101 A
#15666666416
0!
#15708333082
1!
b11110 A
#15749999748
0!
#15791666414
1!
b11111 A
#15833333080
0!
#15874999746
1!
b100000 A
#15916666412
0!
#15958333078
1!
b100001 A
#15999999744
0!
#16041666410
1!
b100010 A
#16083333076
0!
#16124999742
1!
b100011 A
#16166666408
0!
#16208333074
1!
b100100 A
#16249999740
0!
#16291666406
1!
b100101 A
#16333333072
0!
#16374999738
1!
b100110 A
#16416666404
0!
#16458333070
1!
b100111 A
#16499999736
0!
#16541666402
1!
b101000 A
#16583333068
0!
#16624999734
1!
b101001 A
#16666666400
0!
#16708333066
1!
b101010 A
#16749999732
0!
#16791666398
1!
b101011 A
#16833333064
0!
#16874999730
1!
b101100 A
#16916666396
0!
#16958333062
1!
b101101 A
#16999999728
0!
#17041666394
1!
b101110 A
#17083333060
0!
#17124999726
1!
b101111 A
#17166666392
0!
#17208333058
1!
b110000 A
#17249999724
0!
#17291666390
1!
b110001 A
#17333333056
0!
#17374999722
1!
b110010 A
#17416666388
0!
#17458333054
1!
b110011 A
#17499999720
0!
#17541666386
1!
b110100 A
#17583333052
0!
#17624999718
1!
b110101 A
#17666666384
0!
#17708333050
1!
b110110 A
#17749999716
0!
#17791666382
1!
b110111 A
#17833333048
0!
#17874999714
1!
b111000 A
#17916666380
0!
#17958333046
1!
b111001 A
#17999999712
0!
#18041666378
1!
b111010 A
#18083333044
0!
#18124999710
1!
b111011 A
#18166666376
0!
#18208333042
1!
b111100 A
#18249999708
0!
#18291666374
1!
b111101 A
#18333333040
0!
#18374999706
1!
b111110 A
#18416666372
0!
#18458333038
1!
b111111 A
#18499999704
0!
#18541666370
1!
b1000000 A
#18583333036
0!
#18624999702
1!
b1000001 A
#18666666368
0!
#18708333034
1!
b1000010 A
#18749999700
0!
#18791666366
1!
b1000011 A
#18833333032
0!
#18874999698
1!
b1000100 A
#18916666364
0!
#18958333030
1!
b1000101 A
#18999999696
0!
#19041666362
1!
b1000110 A
#19083333028
0!
#19124999694
1!
b1000111 A
#19166666360
0!
#19208333026
1!
b1001000 A
#19249999692
0!
#19291666358
1!
b1001001 A
#19333333024
0!
#19374999690
1!
b1001010 A
#19416666356
0!
#19458333022
1!
b1001011 A
#19499999688
0!
#19541666354
1!
b1001100 A
#19583333020
0!
#19624999686
1!
b1001101 A
#19666666352
0!
#19708333018
1!
b1001110 A
#19749999684
0!
#19791666350
1!
b1001111 A
#19833333016
0!
#19874999682
1!
b1010000 A
#19916666348
0!
#19958333014
1!
b1010001 A
#19999999680
0!
#20041666346
1!
b1010010 A
#20083333012
0!
#20124999678
1!
b1010011 A
#20166666344
0!
#20208333010
1!
b1010100 A
#20249999676
0!
#20291666342
1!
b1010101 A
#20333333008
0!
#20374999674
1!
b1010110 A
#20416666340
0!
#20458333006
1!
b1010111 A
#20499999672
0!
#20541666338
1!
b1011000 A
#20583333004
0!
#20624999670
1!
b1011001 A
#20666666336
0!
#20708333002
1!
b1011010 A
#20749999668
0!
#20791666334
1!
b1011011 A
#20833333000
0!
#20874999666
1!
b1011100 A
#20916666332
0!
#20958332998
1!
b1011101 A
#20999999664
0!
#21041666330
1!
b1011110 A
#21083332996
0!
#21124999662
1!
b1011111 A
#21166666328
0!
#21208332994
1!
b1100000 A
#21249999660
0!
#21291666326
1!
b1100001 A
#21333332992
0!
#21374999658
1!
b1100010 A
#21416666324
0!
#21458332990
1!
b1100011 A
#21499999656
0!
#21541666322
1!
b1100100 A
#21583332988
0!
#21624999654
1!
b1100101 A
#21666666320
0!
#21708332986
1!
b1100110 A
#21749999652
0!
#21791666318
1!
b1100111 A
#21833332984
0!
#21874999650
1!
b0 A
b10 B
#21916666316
0!
#21958332982
1!
b1 A
#21999999648
0!
#22041666314
1!
b10 A
#22083332980
0!
#22124999646
1!
b11 A
#22166666312
0!
#22208332978
1!
b100 A
#22249999644
0!
#22291666310
1!
b101 A
#22333332976
0!
#22374999642
1!
b110 A
#22416666308
0!
#22458332974
1!
b111 A
#22499999640
0!
#22541666306
1!
b1000 A
#22583332972
0!
#22624999638
1!
b1001 A
#22666666304
0!
#22708332970
1!
b1010 A
#22749999636
0!
#22791666302
1!
b1011 A
#22833332968
0!
#22874999634
1!
b1100 A
#22916666300
0!
#22958332966
1!
b1101 A
#22999999632
0!
#23041666298
1!
b1110 A
#23083332964
0!
#23124999630
1!
b1111 A
#23166666296
0!
#23208332962
1!
b10000 A
#23249999628
0!
#23291666294
1!
b10001 A
#23333332960
0!
#23374999626
1!
b10010 A
#23416666292
0!
#23458332958
1!
b10011 A
#23499999624
0!
#23541666290
1!
b10100 A
#23583332956
0!
#23624999622
1!
b10101 A
#23666666288
0!
#23708332954
1!
b10110 A
#23749999620
0!
#23791666286
1!
b10111 A
#23833332952
0!
#23874999618
1!
b11000 A
#23916666284
0!
#23958332950
1!
b11001 A
#23999999616
0!
#24041666282
1!
b11010 A
#24083332948
0!
#24124999614
1!
b11011 A
#24166666280
0!
#24208332946
1!
b11100 A
#24249999612
0!
#24291666278
1!
b11101 A
#24333332944
0!
#24374999610
1!
b11110 A
#24416666276
0!
#24458332942
1!
b11111 A
#24499999608
0!
#24541666274
1!
b100000 A
#24583332940
0!
#24624999606
1!
b100001 A
#24666666272
0!
#24708332938
1!
b100010 A
#24749999604
0!
#24791666270
1!
b100011 A
#24833332936
0!
#24874999602
1!
b100100 A
#24916666268
0!
#24958332934
1!
b100101 A
#24999999600
0!
#25041666266
1!
b100110 A
