build/test_loader.vcd
$comment Generated by Amaranth $end
$date 2026-03-01 23:17:31.128114 $end
$timescale 1 fs $end
$scope module bench $end
$scope module top $end
$var wire 1 ! clk $end
$var wire 1 " rst $end
$var wire 1 # rx $end
$var wire 1 $ uart_rx_pin $end
$var wire 6 % imem_r_addr $end
$var wire 9 & imem_probe_addr $end
$var wire 32 ' imem_probe_data $end
$var wire 32 ( imem_r_data $end
$var wire 6 ) dmem_r_addr $end
$var wire 9 * dmem_probe_addr $end
$var wire 32 + dmem_probe_data $end
$var wire 32 , dmem_r_data $end
$var wire 1 - load_complete $end
$var wire 1 . load_complete$13 $end
$var wire 16 / words_received $end
$var wire 16 0 load_words_received $end
$var string 1 1 loader_fsm_state $end
$var wire 1 2 load_is_imem $end
$var wire 6 3 imem_w_addr $end
$var wire 32 4 imem_w_data $end
$var wire 32 5 load_word $end
$var wire 1 6 imem_w_en $end
$var wire 6 7 dmem_w_addr $end
$var wire 32 8 dmem_w_data $end
$var wire 1 9 dmem_w_en $end
$var wire 1 : valid $end
$var wire 8 ; data $end
$var wire 2 < load_byte_idx $end
$var wire 16 = load_word_count $end
$var wire 32 F \imem[0] $end
$var wire 32 G \imem[1] $end
$var wire 32 H \imem[2] $end
$var wire 32 I \imem[3] $end
$var wire 32 J \imem[4] $end
$var wire 32 K \imem[5] $end
$var wire 32 L \imem[6] $end
$var wire 32 M \imem[7] $end
$var wire 32 N \imem[8] $end
$var wire 32 O \imem[9] $end
$var wire 32 P \imem[10] $end
$var wire 32 Q \imem[11] $end
$var wire 32 R \imem[12] $end
$var wire 32 S \imem[13] $end
$var wire 32 T \imem[14] $end
$var wire 32 U \imem[15] $end
$var wire 32 V \imem[16] $end
$var wire 32 W \imem[17] $end
$var wire 32 X \imem[18] $end
$var wire 32 Y \imem[19] $end
$var wire 32 Z \imem[20] $end
$var wire 32 [ \imem[21] $end
$var wire 32 \ \imem[22] $end
$var wire 32 ] \imem[23] $end
$var wire 32 ^ \imem[24] $end
$var wire 32 _ \imem[25] $end
$var wire 32 ` \imem[26] $end
$var wire 32 a \imem[27] $end
$var wire 32 b \imem[28] $end
$var wire 32 c \imem[29] $end
$var wire 32 d \imem[30] $end
$var wire 32 e \imem[31] $end
$var wire 32 f \imem[32] $end
$var wire 32 g \imem[33] $end
$var wire 32 h \imem[34] $end
$var wire 32 i \imem[35] $end
$var wire 32 j \imem[36] $end
$var wire 32 k \imem[37] $end
$var wire 32 l \imem[38] $end
$var wire 32 m \imem[39] $end
$var wire 32 n \imem[40] $end
$var wire 32 o \imem[41] $end
$var wire 32 p \imem[42] $end
$var wire 32 q \imem[43] $end
$var wire 32 r \imem[44] $end
$var wire 32 s \imem[45] $end
$var wire 32 t \imem[46] $end
$var wire 32 u \imem[47] $end
$var wire 32 v \imem[48] $end
$var wire 32 w \imem[49] $end
$var wire 32 x \imem[50] $end
$var wire 32 y \imem[51] $end
$var wire 32 z \imem[52] $end
$var wire 32 { \imem[53] $end
$var wire 32 | \imem[54] $end
$var wire 32 } \imem[55] $end
$var wire 32 ~ \imem[56] $end
$var wire 32 !! \imem[57] $end
$var wire 32 "! \imem[58] $end
$var wire 32 #! \imem[59] $end
$var wire 32 $! \imem[60] $end
$var wire 32 %! \imem[61] $end
$var wire 32 &! \imem[62] $end
$var wire 32 '! \imem[63] $end
$var wire 32 (! \dmem[0] $end
$var wire 32 )! \dmem[1] $end
$var wire 32 *! \dmem[2] $end
$var wire 32 +! \dmem[3] $end
$var wire 32 ,! \dmem[4] $end
$var wire 32 -! \dmem[5] $end
$var wire 32 .! \dmem[6] $end
$var wire 32 /! \dmem[7] $end
$var wire 32 0! \dmem[8] $end
$var wire 32 1! \dmem[9] $end
$var wire 32 2! \dmem[10] $end
$var wire 32 3! \dmem[11] $end
$var wire 32 4! \dmem[12] $end
$var wire 32 5! \dmem[13] $end
$var wire 32 6! \dmem[14] $end
$var wire 32 7! \dmem[15] $end
$var wire 32 8! \dmem[16] $end
$var wire 32 9! \dmem[17] $end
$var wire 32 :! \dmem[18] $end
$var wire 32 ;! \dmem[19] $end
$var wire 32 <! \dmem[20] $end
$var wire 32 =! \dmem[21] $end
$var wire 32 >! \dmem[22] $end
$var wire 32 ?! \dmem[23] $end
$var wire 32 @! \dmem[24] $end
$var wire 32 A! \dmem[25] $end
$var wire 32 B! \dmem[26] $end
$var wire 32 C! \dmem[27] $end
$var wire 32 D! \dmem[28] $end
$var wire 32 E! \dmem[29] $end
$var wire 32 F! \dmem[30] $end
$var wire 32 G! \dmem[31] $end
$var wire 32 H! \dmem[32] $end
$var wire 32 I! \dmem[33] $end
$var wire 32 J! \dmem[34] $end
$var wire 32 K! \dmem[35] $end
$var wire 32 L! \dmem[36] $end
$var wire 32 M! \dmem[37] $end
$var wire 32 N! \dmem[38] $end
$var wire 32 O! \dmem[39] $end
$var wire 32 P! \dmem[40] $end
$var wire 32 Q! \dmem[41] $end
$var wire 32 R! \dmem[42] $end
$var wire 32 S! \dmem[43] $end
$var wire 32 T! \dmem[44] $end
$var wire 32 U! \dmem[45] $end
$var wire 32 V! \dmem[46] $end
$var wire 32 W! \dmem[47] $end
$var wire 32 X! \dmem[48] $end
$var wire 32 Y! \dmem[49] $end
$var wire 32 Z! \dmem[50] $end
$var wire 32 [! \dmem[51] $end
$var wire 32 \! \dmem[52] $end
$var wire 32 ]! \dmem[53] $end
$var wire 32 ^! \dmem[54] $end
$var wire 32 _! \dmem[55] $end
$var wire 32 `! \dmem[56] $end
$var wire 32 a! \dmem[57] $end
$var wire 32 b! \dmem[58] $end
$var wire 32 c! \dmem[59] $end
$var wire 32 d! \dmem[60] $end
$var wire 32 e! \dmem[61] $end
$var wire 32 f! \dmem[62] $end
$var wire 32 g! \dmem[63] $end
$scope module dmem $end
$var wire 1 ! clk $end
$var wire 1 " rst $end
$var wire 6 ) dmem_r_addr $end
$var wire 32 , dmem_r_data $end
$var wire 6 7 dmem_w_addr $end
$var wire 32 8 dmem_w_data $end
$var wire 1 9 dmem_w_en $end
$var wire 1 E dmem_r_en $end
$upscope $end
$scope module imem $end
$var wire 1 ! clk $end
$var wire 1 " rst $end
$var wire 6 % imem_r_addr $end
$var wire 32 ( imem_r_data $end
$var wire 6 3 imem_w_addr $end
$var wire 32 4 imem_w_data $end
$var wire 1 6 imem_w_en $end
$var wire 1 D imem_r_en $end
$upscope $end
$scope module uart_rx $end
$var wire 1 ! clk $end
$var wire 1 " rst $end
$var wire 1 # rx $end
$var wire 1 : valid $end
$var wire 8 ; data $end
$var wire 2 > rx_sync $end
$var string 1 ? uart_rx_state $end
$var wire 7 @ counter $end
$var wire 4 A bit_pos $end
$var wire 8 B shift_reg $end
$var wire 1 C error $end
$upscope $end
$upscope $end
$upscope $end
$enddefinitions $end
#0
$dumpvars
0!
0"
0#
0$
b0 %
b0 &
b0 '
b0 (
b0 )
b0 *
b0 +
b0 ,
0-
0.
b0 /
b0 0
sWAIT_SYNC/0 1
02
b0 3
b0 4
b0 5
06
b0 7
b0 8
09
0:
b0 ;
b0 <
b0 =
b11 >
sIDLE/0 ?
b0 @
b0 A
b0 B
0C
1D
1E
b0 F
b0 G
b0 H
b0 I
b0 J
b0 K
b0 L
b0 M
b0 N
b0 O
b0 P
b0 Q
b0 R
b0 S
b0 T
b0 U
b0 V
b0 W
b0 X
b0 Y
b0 Z
b0 [
b0 \
b0 ]
b0 ^
b0 _
b0 `
b0 a
b0 b
b0 c
b0 d
b0 e
b0 f
b0 g
b0 h
b0 i
b0 j
b0 k
b0 l
b0 m
b0 n
b0 o
b0 p
b0 q
b0 r
b0 s
b0 t
b0 u
b0 v
b0 w
b0 x
b0 y
b0 z
b0 {
b0 |
b0 }
b0 ~
b0 !!
b0 "!
b0 #!
b0 $!
b0 %!
b0 &!
b0 '!
b0 (!
b0 )!
b0 *!
b0 +!
b0 ,!
b0 -!
b0 .!
b0 /!
b0 0!
b0 1!
b0 2!
b0 3!
b0 4!
b0 5!
b0 6!
b0 7!
b0 8!
b0 9!
b0 :!
b0 ;!
b0 <!
b0 =!
b0 >!
b0 ?!
b0 @!
b0 A!
b0 B!
b0 C!
b0 D!
b0 E!
b0 F!
b0 G!
b0 H!
b0 I!
b0 J!
b0 K!
b0 L!
b0 M!
b0 N!
b0 O!
b0 P!
b0 Q!
b0 R!
b0 S!
b0 T!
b0 U!
b0 V!
b0 W!
b0 X!
b0 Y!
b0 Z!
b0 [!
b0 \!
b0 ]!
b0 ^!
b0 _!
b0 `!
b0 a!
b0 b!
b0 c!
b0 d!
b0 e!
b0 f!
b0 g!
$end
#41666666
1!
b10 >
#83333332
0!
#124999998
1!
b0 >
#166666664
0!
#208333330
1!
sSTART/1 ?
#249999996
0!
#291666662
1!
b1 @
#333333328
0!
#374999994
1!
b10 @
#416666660
0!
#458333326
1!
b11 @
#499999992
0!
#541666658
1!
b100 @
#583333324
0!
#624999990
1!
b101 @
#666666656
0!
#708333322
1!
b110 @
#749999988
0!
#791666654
1!
b111 @
#833333320
0!
#874999986
1!
b1000 @
#916666652
0!
#958333318
1!
b1001 @
#999999984
0!
#1041666650
1!
b1010 @
#1083333316
0!
#1124999982
1!
b1011 @
#1166666648
0!
#1208333314
1!
b1100 @
#1249999980
0!
#1291666646
1!
b1101 @
#1333333312
0!
#1374999978
1!
b1110 @
#1416666644
0!
#1458333310
1!
b1111 @
#1499999976
0!
#1541666642
1!
b10000 @
#1583333308
0!
#1624999974
1!
b10001 @
#1666666640
0!
#1708333306
1!
b10010 @
#1749999972
0!
#1791666638
1!
b10011 @
#1833333304
0!
#1874999970
1!
b10100 @
#1916666636
0!
#1958333302
1!
b10101 @
#1999999968
0!
#2041666634
1!
b10110 @
#2083333300
0!
#2124999966
1!
b10111 @
#2166666632
0!
#2208333298
1!
b11000 @
#2249999964
0!
#2291666630
1!
b11001 @
#2333333296
0!
#2374999962
1!
b11010 @
#2416666628
0!
#2458333294
1!
b11011 @
#2499999960
0!
#2541666626
1!
b11100 @
#2583333292
0!
#2624999958
1!
b11101 @
#2666666624
0!
#2708333290
1!
b11110 @
#2749999956
0!
#2791666622
1!
b11111 @
#2833333288
0!
#2874999954
1!
b100000 @
#2916666620
0!
#2958333286
1!
b100001 @
#2999999952
0!
#3041666618
1!
b100010 @
#3083333284
0!
#3124999950
1!
b100011 @
#3166666616
0!
#3208333282
1!
b100100 @
#3249999948
0!
#3291666614
1!
b100101 @
#3333333280
0!
#3374999946
1!
b100110 @
#3416666612
0!
#3458333278
1!
b100111 @
#3499999944
0!
#3541666610
1!
b101000 @
#3583333276
0!
#3624999942
1!
b101001 @
#3666666608
0!
#3708333274
1!
b101010 @
#3749999940
0!
#3791666606
1!
b101011 @
#3833333272
0!
#3874999938
1!
b101100 @
#3916666604
0!
#3958333270
1!
b101101 @
#3999999936
0!
#4041666602
1!
b101110 @
#4083333268
0!
#4124999934
1!
b101111 @
#4166666600
0!
#4208333266
1!
b110000 @
#4249999932
0!
#4291666598
1!
b110001 @
#4333333264
0!
#4374999930
1!
b110010 @
#4416666596
0!
#4458333262
1!
b110011 @
#4499999928
0!
#4541666594
1!
sDATA/2 ?
b0 @
#4583333260
0!
#4624999926
1!
b1 @
#4666666592
0!
#4708333258
1!
b10 @
#4749999924
0!
#4791666590
1!
b11 @
#4833333256
0!
#4874999922
1!
b100 @
#4916666588
0!
#4958333254
1!
b101 @
#4999999920
0!
#5041666586
1!
b110 @
#5083333252
0!
#5124999918
1!
b111 @
#5166666584
0!
#5208333250
1!
b1000 @
#5249999916
0!
#5291666582
1!
b1001 @
#5333333248
0!
#5374999914
1!
b1010 @
#5416666580
0!
#5458333246
1!
b1011 @
#5499999912
0!
#5541666578
1!
b1100 @
#5583333244
0!
#5624999910
1!
b1101 @
#5666666576
0!
#5708333242
1!
b1110 @
#5749999908
0!
#5791666574
1!
b1111 @
#5833333240
0!
#5874999906
1!
b10000 @
#5916666572
0!
#5958333238
1!
b10001 @
#5999999904
0!
#6041666570
1!
b10010 @
#6083333236
0!
#6124999902
1!
b10011 @
#6166666568
0!
#6208333234
1!
b10100 @
#6249999900
0!
#6291666566
1!
b10101 @
#6333333232
0!
#6374999898
1!
b10110 @
#6416666564
0!
#6458333230
1!
b10111 @
#6499999896
0!
#6541666562
1!
b11000 @
#6583333228
0!
#6624999894
1!
b11001 @
#6666666560
0!
#6708333226
1!
b11010 @
#6749999892
0!
#6791666558
1!
b11011 @
#6833333224
0!
#6874999890
1!
b11100 @
#6916666556
0!
#6958333222
1!
b11101 @
#6999999888
0!
#7041666554
1!
b11110 @
#7083333220
0!
#7124999886
1!
b11111 @
#7166666552
0!
#7208333218
1!
b100000 @
#7249999884
0!
#7291666550
1!
b100001 @
#7333333216
0!
#7374999882
1!
b100010 @
#7416666548
0!
#7458333214
1!
b100011 @
#7499999880
0!
#7541666546
1!
b100100 @
#7583333212
0!
#7624999878
1!
b100101 @
#7666666544
0!
#7708333210
1!
b100110 @
#7749999876
0!
#7791666542
1!
b100111 @
#7833333208
0!
#7874999874
1!
b101000 @
#7916666540
0!
#7958333206
1!
b101001 @
#7999999872
0!
#8041666538
1!
b101010 @
#8083333204
0!
#8124999870
1!
b101011 @
#8166666536
0!
#8208333202
1!
b101100 @
#8249999868
0!
#8291666534
1!
b101101 @
#8333333200
0!
#8374999866
1!
b101110 @
#8416666532
0!
#8458333198
1!
b101111 @
#8499999864
0!
#8541666530
1!
b110000 @
#8583333196
0!
#8624999862
1!
b110001 @
#8666666528
0!
#8708333194
1!
b110010 @
#8749999860
0!
#8791666526
1!
b110011 @
#8833333192
0!
#8874999858
1!
b110100 @
#8916666524
0!
#8958333190
1!
b110101 @
#8999999856
0!
#9041666522
1!
b110110 @
#9083333188
0!
#9124999854
1!
b110111 @
#9166666520
0!
#9208333186
1!
b111000 @
#9249999852
0!
#9291666518
1!
b111001 @
#9333333184
0!
#9374999850
1!
b111010 @
#9416666516
0!
#9458333182
1!
b111011 @
#9499999848
0!
#9541666514
1!
b111100 @
#9583333180
0!
#9624999846
1!
b111101 @
#9666666512
0!
#9708333178
1!
b111110 @
#9749999844
0!
#9791666510
1!
b111111 @
#9833333176
0!
#9874999842
1!
b1000000 @
#9916666508
0!
#9958333174
1!
b1000001 @
#9999999840
0!
#10041666506
1!
b1000010 @
#10083333172
0!
#10124999838
1!
b1000011 @
#10166666504
0!
#10208333170
1!
b1000100 @
#10249999836
0!
#10291666502
1!
b1000101 @
#10333333168
0!
#10374999834
1!
b1000110 @
#10416666500
0!
#10458333166
1!
b1000111 @
#10499999832
0!
#10541666498
1!
b1001000 @
#10583333164
0!
#10624999830
1!
b1001001 @
#10666666496
0!
#10708333162
1!
b1001010 @
#10749999828
0!
#10791666494
1!
b1001011 @
#10833333160
0!
#10874999826
1!
b1001100 @
#10916666492
0!
#10958333158
1!
b1001101 @
#10999999824
0!
#11041666490
1!
b1001110 @
#11083333156
0!
#11124999822
1!
b1001111 @
#11166666488
0!
#11208333154
1!
b1010000 @
#11249999820
0!
#11291666486
1!
b1010001 @
#11333333152
0!
#11374999818
1!
b1010010 @
#11416666484
0!
#11458333150
1!
b1010011 @
#11499999816
0!
#11541666482
1!
b1010100 @
#11583333148
0!
#11624999814
1!
b1010101 @
#11666666480
0!
#11708333146
1!
b1010110 @
#11749999812
0!
#11791666478
1!
b1010111 @
#11833333144
0!
#11874999810
1!
b1011000 @
#11916666476
0!
#11958333142
1!
b1011001 @
#11999999808
0!
#12041666474
1!
b1011010 @
#12083333140
0!
#12124999806
1!
b1011011 @
#12166666472
0!
#12208333138
1!
b1011100 @
#12249999804
0!
#12291666470
1!
b1011101 @
#12333333136
0!
#12374999802
1!
b1011110 @
#12416666468
0!
#12458333134
1!
b1011111 @
#12499999800
0!
#12541666466
1!
b1100000 @
#12583333132
0!
#12624999798
1!
b1100001 @
#12666666464
0!
#12708333130
1!
b1100010 @
#12749999796
0!
#12791666462
1!
b1100011 @
#12833333128
0!
#12874999794
1!
b1100100 @
#12916666460
0!
#12958333126
1!
b1100101 @
#12999999792
0!
#13041666458
1!
b1100110 @
#13083333124
0!
#13124999790
1!
b1100111 @
#13166666456
0!
#13208333122
1!
b1 A
b0 @
#13249999788
0!
#13291666454
1!
b1 @
#13333333120
0!
#13374999786
1!
b10 @
#13416666452
0!
#13458333118
1!
b11 @
#13499999784
0!
#13541666450
1!
b100 @
#13583333116
0!
#13624999782
1!
b101 @
#13666666448
0!
#13708333114
1!
b110 @
#13749999780
0!
#13791666446
1!
b111 @
#13833333112
0!
#13874999778
1!
b1000 @
#13916666444
0!
#13958333110
1!
b1001 @
#13999999776
0!
#14041666442
1!
b1010 @
#14083333108
0!
#14124999774
1!
b1011 @
#14166666440
0!
#14208333106
1!
b1100 @
#14249999772
0!
#14291666438
1!
b1101 @
#14333333104
0!
#14374999770
1!
b1110 @
#14416666436
0!
#14458333102
1!
b1111 @
#14499999768
0!
#14541666434
1!
b10000 @
#14583333100
0!
#14624999766
1!
b10001 @
#14666666432
0!
#14708333098
1!
b10010 @
#14749999764
0!
#14791666430
1!
b10011 @
#14833333096
0!
#14874999762
1!
b10100 @
#14916666428
0!
#14958333094
1!
b10101 @
#14999999760
0!
#15041666426
1!
b10110 @
#15083333092
0!
#15124999758
1!
b10111 @
#15166666424
0!
#15208333090
1!
b11000 @
#15249999756
0!
#15291666422
1!
b11001 @
#15333333088
0!
#15374999754
1!
b11010 @
#15416666420
0!
#15458333086
1!
b11011 @
#15499999752
0!
#15541666418
1!
b11100 @
#15583333084
0!
#15624999750
1!
b11101 @
#15666666416
0!
#15708333082
1!
b11110 @
#15749999748
0!
#15791666414
1!
b11111 @
#15833333080
0!
#15874999746
1!
b100000 @
#15916666412
0!
#15958333078
1!
b100001 @
#15999999744
0!
#16041666410
1!
b100010 @
#16083333076
0!
#16124999742
1!
b100011 @
#16166666408
0!
#16208333074
1!
b100100 @
#16249999740
0!
#16291666406
1!
b100101 @
#16333333072
0!
#16374999738
1!
b100110 @
#16416666404
0!
#16458333070
1!
b100111 @
#16499999736
0!
#16541666402
1!
b101000 @
#16583333068
0!
#16624999734
1!
b101001 @
#16666666400
0!
#16708333066
1!
b101010 @
#16749999732
0!
#16791666398
1!
b101011 @
#16833333064
0!
#16874999730
1!
b101100 @
#16916666396
0!
#16958333062
1!
b101101 @
#16999999728
0!
#17041666394
1!
b101110 @
#17083333060
0!
#17124999726
1!
b101111 @
#17166666392
0!
#17208333058
1!
b110000 @
#17249999724
0!
#17291666390
1!
1$
b110001 @
1#
#17333333056
0!
#17374999722
1!
b1 >
b110010 @
#17416666388
0!
#17458333054
1!
b110011 @
b11 >
#17499999720
0!
#17541666386
1!
b110100 @
#17583333052
0!
#17624999718
1!
b110101 @
#17666666384
0!
#17708333050
1!
b110110 @
#17749999716
0!
#17791666382
1!
b110111 @
#17833333048
0!
#17874999714
1!
b111000 @
#17916666380
0!
#17958333046
1!
b111001 @
#17999999712
0!
#18041666378
1!
b111010 @
#18083333044
0!
#18124999710
1!
b111011 @
#18166666376
0!
#18208333042
1!
b111100 @
#18249999708
0!
#18291666374
1!
b111101 @
#18333333040
0!
#18374999706
1!
b111110 @
#18416666372
0!
#18458333038
1!
b111111 @
#18499999704
0!
#18541666370
1!
b1000000 @
#18583333036
0!
#18624999702
1!
b1000001 @
#18666666368
0!
#18708333034
1!
b1000010 @
#18749999700
0!
#18791666366
1!
b1000011 @
#18833333032
0!
#18874999698
1!
b1000100 @
#18916666364
0!
#18958333030
1!
b1000101 @
#18999999696
0!
#19041666362
1!
b1000110 @
#19083333028
0!
#19124999694
1!
b1000111 @
#19166666360
0!
#19208333026
1!
b1001000 @
#19249999692
0!
#19291666358
1!
b1001001 @
#19333333024
0!
#19374999690
1!
b1001010 @
#19416666356
0!
#19458333022
1!
b1001011 @
#19499999688
0!
#19541666354
1!
b1001100 @
#19583333020
0!
#19624999686
1!
b1001101 @
#19666666352
0!
#19708333018
1!
b1001110 @
#19749999684
0!
#19791666350
1!
b1001111 @
#19833333016
0!
#19874999682
1!
b1010000 @
#19916666348
0!
#19958333014
1!
b1010001 @
#19999999680
0!
#20041666346
1!
b1010010 @
#20083333012
0!
#20124999678
1!
b1010011 @
#20166666344
0!
#20208333010
1!
b1010100 @
#20249999676
0!
#20291666342
1!
b1010101 @
#20333333008
0!
#20374999674
1!
b1010110 @
#20416666340
0!
#20458333006
1!
b1010111 @
#20499999672
0!
#20541666338
1!
b1011000 @
#20583333004
0!
#20624999670
1!
b1011001 @
#20666666336
0!
#20708333002
1!
b1011010 @
#20749999668
0!
#20791666334
1!
b1011011 @
#20833333000
0!
#20874999666
1!
b1011100 @
#20916666332
0!
#20958332998
1!
b1011101 @
#20999999664
0!
#21041666330
1!
b1011110 @
#21083332996
0!
#21124999662
1!
b1011111 @
#21166666328
0!
#21208332994
1!
b1100000 @
#21249999660
0!
#21291666326
1!
b1100001 @
#21333332992
0!
#21374999658
1!
b1100010 @
#21416666324
0!
#21458332990
1!
b1100011 @
#21499999656
0!
#21541666322
1!
b1100100 @
#21583332988
0!
#21624999654
1!
b1100101 @
#21666666320
0!
#21708332986
1!
b1100110 @
#21749999652
0!
#21791666318
1!
b1100111 @
#21833332984
0!
#21874999650
1!
b10000000 B
b10 A
b0 @
#21916666316
0!
#21958332982
1!
b1 @
#21999999648
0!
#22041666314
1!
b10 @
#22083332980
0!
#22124999646
1!
b11 @
#22166666312
0!
#22208332978
1!
b100 @
#22249999644
0!
#22291666310
1!
b101 @
#22333332976
0!
#22374999642
1!
b110 @
#22416666308
0!
#22458332974
1!
b111 @
#22499999640
0!
#22541666306
1!
b1000 @
#22583332972
0!
#22624999638
1!
b1001 @
#22666666304
0!
#22708332970
1!
b1010 @
#22749999636
0!
#22791666302
1!
b1011 @
#22833332968
0!
#22874999634
1!
b1100 @
#22916666300
0!
#22958332966
1!
b1101 @
#22999999632
0!
#23041666298
1!
b1110 @
#23083332964
0!
#23124999630
1!
b1111 @
#23166666296
0!
#23208332962
1!
b10000 @
#23249999628
0!
#23291666294
1!
b10001 @
#23333332960
0!
#23374999626
1!
b10010 @
#23416666292
0!
#23458332958
1!
b10011 @
#23499999624
0!
#23541666290
1!
b10100 @
#23583332956
0!
#23624999622
1!
b10101 @
#23666666288
0!
#23708332954
1!
b10110 @
#23749999620
0!
#23791666286
1!
b10111 @
#23833332952
0!
#23874999618
1!
b11000 @
#23916666284
0!
#23958332950
1!
b11001 @
#23999999616
0!
#24041666282
1!
b11010 @
#24083332948
0!
#24124999614
1!
b11011 @
#24166666280
0!
#24208332946
1!
b11100 @
#24249999612
0!
#24291666278
1!
b11101 @
#24333332944
0!
#24374999610
1!
b11110 @
#24416666276
0!
#24458332942
1!
b11111 @
#24499999608
0!
#24541666274
1!
b100000 @
#24583332940
0!
#24624999606
1!
b100001 @
#24666666272
0!
#24708332938
1!
b100010 @
#24749999604
0!
#24791666270
1!
b100011 @
#24833332936
0!
#24874999602
1!
b100100 @
#24916666268
0!
#24958332934
1!
b100101 @
#24999999600
0!
#25041666266
1!
b100110 @
#25083332932
0!
#25124999598
1!
b100111 @
#25166666264
0!
#25208332930
1!
b101000 @
#25249999596
0!
#25291666262
1!
b101001 @
#25333332928
0!
#25374999594
1!
b101010 @
#25416666260
0!
#25458332926
1!
b101011 @
#25499999592
0!
#25541666258
1!
b101100 @
#25583332924
0!
#25624999590
1!
b101101 @
#25666666256
0!
#25708332922
1!
b101110 @
#25749999588
0!
#25791666254
1!
b101111 @
#25833332920
0!
#25874999586
1!
b110000 @
#25916666252
0!
#25958332918
1!
0$
b110001 @
0#
#25999999584
0!
#26041666250
1!
b10 >
b110010 @
#26083332916
0!
#26124999582
1!
b0 >
b110011 @
#26166666248
0!
#26208332914
1!
b110100 @
#26249999580
0!
#26291666246
1!
b110101 @
#26333332912
0!
#26374999578
1!
b110110 @
#26416666244
0!
#26458332910
1!
b110111 @
#26499999576
0!
#26541666242
1!
b111000 @
#26583332908
0!
#26624999574
1!
b111001 @
#26666666240
0!
#26708332906
1!
b111010 @
#26749999572
0!
#26791666238
1!
b111011 @
#26833332904
0!
#26874999570
1!
b111100 @
#26916666236
0!
#26958332902
1!
b111101 @
#26999999568
0!
#27041666234
1!
b111110 @
#27083332900
0!
#27124999566
1!
b111111 @
#27166666232
0!
#27208332898
1!
b1000000 @
#27249999564
0!
#27291666230
1!
b1000001 @
#27333332896
0!
#27374999562
1!
b1000010 @
#27416666228
0!
#27458332894
1!
b1000011 @
#27499999560
0!
#27541666226
1!
b1000100 @
#27583332892
0!
#27624999558
1!
b1000101 @
#27666666224
0!
#27708332890
1!
b1000110 @
#27749999556
0!
#27791666222
1!
b1000111 @
#27833332888
0!
#27874999554
1!
b1001000 @
#27916666220
0!
#27958332886
1!
b1001001 @
#27999999552
0!
#28041666218
1!
b1001010 @
#28083332884
0!
#28124999550
1!
b1001011 @
#28166666216
0!
#28208332882
1!
b1001100 @
#28249999548
0!
#28291666214
1!
b1001101 @
#28333332880
0!
#28374999546
1!
b1001110 @
#28416666212
0!
#28458332878
1!
b1001111 @
#28499999544
0!
#28541666210
1!
b1010000 @
#28583332876
0!
#28624999542
1!
b1010001 @
#28666666208
0!
#28708332874
1!
b1010010 @
#28749999540
0!
#28791666206
1!
b1010011 @
#28833332872
0!
#28874999538
1!
b1010100 @
#28916666204
0!
#28958332870
1!
b1010101 @
#28999999536
0!
#29041666202
1!
b1010110 @
#29083332868
0!
#29124999534
1!
b1010111 @
#29166666200
0!
#29208332866
1!
b1011000 @
#29249999532
0!
#29291666198
1!
b1011001 @
#29333332864
0!
#29374999530
1!
b1011010 @
#29416666196
0!
#29458332862
1!
b1011011 @
#29499999528
0!
#29541666194
1!
b1011100 @
#29583332860
0!
#29624999526
1!
b1011101 @
#29666666192
0!
#29708332858
1!
b1011110 @
#29749999524
0!
#29791666190
1!
b1011111 @
#29833332856
0!
#29874999522
1!
b1100000 @
#29916666188
0!
#29958332854
1!
b1100001 @
#29999999520
0!
#30041666186
1!
b1100010 @
#30083332852
0!
#30124999518
1!
b1100011 @
#30166666184
0!
#30208332850
1!
b1100100 @
#30249999516
0!
#30291666182
1!
b1100101 @
#30333332848
0!
#30374999514
1!
b1100110 @
#30416666180
0!
#30458332846
1!
b1100111 @
#30499999512
0!
#30541666178
1!
b1000000 B
b11 A
b0 @
#30583332844
0!
#30624999510
1!
b1 @
#30666666176
0!
#30708332842
1!
b10 @
#30749999508
0!
#30791666174
1!
b11 @
#30833332840
0!
#30874999506
1!
b100 @
#30916666172
0!
#30958332838
1!
b101 @
#30999999504
0!
#31041666170
1!
b110 @
#31083332836
0!
#31124999502
1!
b111 @
#31166666168
0!
#31208332834
1!
b1000 @
#31249999500
0!
#31291666166
1!
b1001 @
#31333332832
0!
#31374999498
1!
b1010 @
#31416666164
0!
#31458332830
1!
b1011 @
#31499999496
0!
#31541666162
1!
b1100 @
#31583332828
0!
#31624999494
1!
b1101 @
#31666666160
0!
#31708332826
1!
b1110 @
#31749999492
0!
#31791666158
1!
b1111 @
#31833332824
0!
#31874999490
1!
b10000 @
#31916666156
0!
#31958332822
1!
b10001 @
#31999999488
0!
#32041666154
1!
b10010 @
#32083332820
0!
#32124999486
1!
b10011 @
#32166666152
0!
#32208332818
1!
b10100 @
#32249999484
0!
#32291666150
1!
b10101 @
#32333332816
0!
#32374999482
1!
b10110 @
#32416666148
0!
#32458332814
1!
b10111 @
#32499999480
0!
#32541666146
1!
b11000 @
#32583332812
0!
#32624999478
1!
b11001 @
#32666666144
0!
#32708332810
1!
b11010 @
#32749999476
0!
#32791666142
1!
b11011 @
#32833332808
0!
#32874999474
1!
b11100 @
#32916666140
0!
#32958332806
1!
b11101 @
#32999999472
0!
#33041666138
1!
b11110 @
#33083332804
0!
#33124999470
1!
b11111 @
#33166666136
0!
#33208332802
1!
b100000 @
#33249999468
0!
#33291666134
1!
b100001 @
#33333332800
0!
#33374999466
1!
b100010 @
#33416666132
0!
#33458332798
1!
b100011 @
#33499999464
0!
#33541666130
1!
b100100 @
#33583332796
0!
#33624999462
1!
b100101 @
#33666666128
0!
#33708332794
1!
b100110 @
#33749999460
0!
#33791666126
1!
b100111 @
#33833332792
0!
#33874999458
1!
b101000 @
#33916666124
0!
#33958332790
1!
b101001 @
#33999999456
0!
#34041666122
1!
b101010 @
#34083332788
0!
#34124999454
1!
b101011 @
#34166666120
0!
#34208332786
1!
b101100 @
#34249999452
0!
#34291666118
1!
b101101 @
#34333332784
0!
#34374999450
1!
b101110 @
#34416666116
0!
#34458332782
1!
b101111 @
#34499999448
0!
#34541666114
1!
b110000 @
#34583332780
0!
#34624999446
1!
1$
b110001 @
1#
#34666666112
0!
#34708332778
1!
b110010 @
b1 >
#34749999444
0!
#34791666110
1!
b11 >
b110011 @
#34833332776
0!
#34874999442
1!
b110100 @
#34916666108
0!
#34958332774
1!
b110101 @
#34999999440
0!
#35041666106
1!
b110110 @
#35083332772
0!
#35124999438
1!
b110111 @
#35166666104
0!
#35208332770
1!
b111000 @
#35249999436
0!
#35291666102
1!
b111001 @
#35333332768
0!
#35374999434
1!
b111010 @
#35416666100
0!
#35458332766
1!
b111011 @
#35499999432
0!
#35541666098
1!
b111100 @
#35583332764
0!
#35624999430
1!
b111101 @
#35666666096
0!
#35708332762
1!
b111110 @
#35749999428
0!
#35791666094
1!
b111111 @
#35833332760
0!
#35874999426
1!
b1000000 @
#35916666092
0!
#35958332758
1!
b1000001 @
#35999999424
0!
#36041666090
1!
b1000010 @
#36083332756
0!
#36124999422
1!
b1000011 @
#36166666088
0!
#36208332754
1!
b1000100 @
#36249999420
0!
#36291666086
1!
b1000101 @
#36333332752
0!
#36374999418
1!
b1000110 @
#36416666084
0!
#36458332750
1!
b1000111 @
#36499999416
0!
